#include <Wire.h>

void setup() {
  Wire.begin(4);                // join i2c bus with address #8
  Wire.onReceive(receiveEvent); // register event
  Serial.begin(9600);           // start serial for output
}

void loop() 
{

}

// function that executes whenever data is received from master
// this function is registered as an event, see setup()

void receiveEvent(int test) 
{
 //Serial.println("ReceiveEvent" + (String)test); M100
   while (Wire.available()) //
    { 
      char c = Wire.read(); 
      //if (c == 'M')
      //{
        //char a = Wire.read();
        //char b = Wire.read();
        //char d = Wire.read();
        Serial.print((char)Wire.read());
       // Serial.print(Wire.read());
       // Serial.print(Wire.read());
       // Wire.print("TEST");
        //Wire.print(""); //slave??
        Serial.println(""); //max snelheid 
      //}
      Serial.println(c);         
    
/*
 //Serial.println("ReceiveEvent" + (String)test);
   while (Wire.available()) 
    { 
      char c = Wire.read(); 
      if (c == 'N')
      {
        Serial.print((char)Wire.read());
        Serial.print(Wire.read());
        Serial.print(Wire.read());
        Wire.print("TEST");
        Wire.write(0x4D);
        //Wire.print(""); //slave??
        Serial.println("max spanning ");
        }
      Serial.println(c);         
    }
     //Serial.println("ReceiveEvent" + (String)test);
   while (Wire.available()) 
    { 
      char c = Wire.read(); 
      if (c == 'I')
      {
        Wire.write(0x4D);
        Wire.print(""); //slave??
        Serial.println("snelheid setpoint");
        }
      Serial.println(c);         
    }
    }
 /*
  Wire.requestFrom(4,1)
  {
    while (Wire.available()) 
    { 
      char c = Wire.read(); 
      Serial.print(c);         
    }
  }
  while (1 < Wire.available()) { // loop through all but the last
    char c = Wire.read(); // receive byte as a character
    Serial.print(c);         // print the character
  }
  int x = Wire.read();    // receive byte as an integer
  Serial.println(x);         // print the integer
  */
    }}