#include <Wire.h>

void setup() {
  Wire.begin(4);                // join i2c bus with address #8 (AandrijvingAdres staat ook in ccs code)
  //Wire.begin(2);                //mcu_Adres, van slave naar master verstuuradres.
  Wire.onReceive(receiveEvent); // register event
  Serial.begin(9600);           // start serial for output
}

//byte x = 0;

void loop() 
{
  Wire.write(0xEE);
}
// function that executes whenever data is received from master
// this function is registered as an event, see setup()

void receiveEvent(int test) 
{
 //Serial.println("ReceiveEvent" + (String)test); M100
   while (Wire.available()) //
    { 
      char c = Wire.read(); 
      //if (c == 'M')
      //{
        //char a = Wire.read();
        //char b = Wire.read();
        //char d = Wire.read();
        Serial.print((char)Wire.read());
       // Serial.print(Wire.read());
       // Serial.print(Wire.read());
       // Wire.print("TEST");
        //Wire.print(""); //slave??
        Serial.println(""); //max snelheid 
      //}
      Serial.println(c);  
      //Wire.beginTransmission(2);
      //Wire.write(x);
      //Wire.endTransmission();       
      }
  }